setup_vision = yes
government = monarchy
add_government_reform = autocracy_reform
government_rank = 1
primary_culture = olavish
religion = skaldhyrric_faith
technology_group = tech_gerudian
capital = 982


1435.2.23 = {
	monarch = {
		name = "Floki"
		dynasty = "Halftansson"
		birth_date = 1422.3.5
		adm = 4
		dip = 3
		mil = 5
		}
	queen = {
		country_of_origin = Z12
		name = "Sigrid of Olavslund"
		dynasty = "of Olavslund"
		birth_date = 1425.1.12
		death_date = 1459.8.9
		female = yes
		adm = 2
		dip = 5
		mil = 4
	}
}
1000.1.1 = { set_estate_privilege = estate_mages_organization_religious }