halfling_revolt_disaster = {

	potential = {
		normal_or_historical_nations = yes
	##	is_religion_enabled = protestant
		is_year = 1550
		NOT = { has_country_flag = bur_dutch_integration }
		NOT = { is_year = 1650 }
		NOT = { has_global_flag = halfling_revolt }
		num_of_owned_provinces_with = {
			value = 5
			region = small_country_region
			OR = {
				culture = bluefoot_halfling
				culture = redfoot_halfling
				culture = visfoot_halfling
				culture = imperial_halfling
			}
		}
		NOT = {
			OR = {
				culture_group = halfling
			#	primary_culture = flemish
			#	primary_culture = frisian
			#	primary_culture = wallonian
			}
		}
		NOT = { exists = A97 }
	#	NOT = { capital_scope = { region = small_country_region } }  #small country is bigger, could be that small low lorentish country, why do they get a free skip over the disaster?
		is_free_or_tributary_trigger = yes
		num_of_cities = 6
	}
	
	can_start = {
		OR = {
			#AND = { quote from jay "religion shouldnt matter"
			#	small_country_region = {
			#		owned_by = ROOT
			#		NOT = { province_religion = ROOT }
			#	}
			#	NOT = { full_idea_group = humanist_ideas }
			#}
			#custom_trigger_tooltip = {
			#	tooltip = halfling_revolt_disaster_tt
				AND = {
					any_owned_province = {
						culture = bluefoot_halfling
					}
					NOT = { accepted_culture = bluefoot_halfling }
				}
				AND = {
					any_owned_province = {
						culture = redfoot_halfling
					}
					NOT = { accepted_culture = redfoot_halfling }
				}
				AND = {
					any_owned_province = {
						culture = visfoot_halfling
					}
					NOT = { accepted_culture = visfoot_halfling }
				}
			#}
		}
	}
	
	can_stop = {
		OR = {
			has_any_disaster = yes
			exists = A97
			is_year = 1650
		}
	}
	
	progress = {	
		# progress happens as a result of tensions that actually exist in your country
		modifier = {
			factor = 1
			NOT = { has_harmonized_with = cannorian }
			any_owned_province = {
				region = small_country_region
				NOT = { province_religion = ROOT }
			}
			NOT = {
				num_of_owned_provinces_with = {
					value = 3
					region = small_country_region
					NOT = { province_religion = ROOT }
				}
			}
		}
		modifier = {
			factor = 2
			NOT = { has_harmonized_with = cannorian }
			num_of_owned_provinces_with = {
				value = 3
				region = small_country_region
				NOT = { province_religion = ROOT }
			}
			NOT = {
				num_of_owned_provinces_with = {
					value = 5
					region = small_country_region
					NOT = { province_religion = ROOT }
				}
			}
		}
		modifier = {
			factor = 3
			NOT = { has_harmonized_with = cannorian }
			num_of_owned_provinces_with = {
				value = 5
				region = small_country_region
				NOT = { province_religion = ROOT }
			}
		}
		modifier = {
			factor = 1
			any_owned_province = {
				region = small_country_region
				unrest = 3
			}
			NOT = {
				num_of_owned_provinces_with = {
					value = 3
					region = small_country_region
					unrest = 3
				}
			}
		}
		modifier = {
			factor = 2
			num_of_owned_provinces_with = {
				value = 3
				region = small_country_region
				unrest = 3
			}
			NOT = {
				num_of_owned_provinces_with = {
					value = 5
					region = small_country_region
					unrest = 3
				}
			}
		}
		modifier = {
			factor = 3
			num_of_owned_provinces_with = {
				value = 5
				region = small_country_region
				unrest = 3
			}
		}
		modifier = {
			factor = 2
			any_owned_province = {
				culture = bluefoot_halfling
			}
			NOT = { accepted_culture = bluefoot_halfling }
		}
		modifier = {
			factor = 2
			any_owned_province = {
				culture = redfoot_halfling
			}
			NOT = { accepted_culture = redfoot_halfling }
		}
		modifier = {
			factor = 2
			any_owned_province = {
				culture = visfoot_halfling
			}
			NOT = { accepted_culture = visfoot_halfling }
		}
		modifier = {
			factor = 1
			NOT = { stability = 1 }
		}
	}
	
	can_end = {
		OR = {
			exists = A97
			AND = {
				custom_trigger_tooltip = {
					tooltip = had_disaster_for_x_years_dutch
					had_global_flag = {
						flag = halfling_revolt
						days = 7300 # 20 years
					}
				}
				NOT = { num_of_rebel_armies = 1 }
				NOT = { num_of_rebel_controlled_provinces = 1 }
				stability = 1
			}
			NOT = {
				num_of_owned_provinces_with = {
					value = 5
					region = small_country_region
					OR = {
						culture = redfoot_halfling
						culture = bluefoot_halfling
						culture = visfoot_halfling
						culture = imperial_halfling
					}
				}
			}
		}
	}
	
	modifier = {
		stability_cost_modifier = 0.50
	}
	
	on_start = flavor_smallcountry.1
	on_end = flavor_smallcountry.12
	
	on_monthly = {
		events = {
			flavor_smallcountry.3 # netherlands declare independence
		}
		random_events = {
			100 = 0
			5 = flavor_smallcountry.2 # random rebels spawn
		}	
	}

}