#348 - Sus | 

owner = A13
controller = A13
add_core = A13
add_core = A70
culture = bluefoot_halfling
religion = regent_court

hre = no

base_tax = 6
base_production = 4
base_manpower = 2

trade_goods = cloth
center_of_trade = 1

capital = ""

is_city = yes









