#392 - Al-Arid

owner = U07
controller = U07
add_core = U07
add_core = U08
culture = west_sandfang_gnoll
religion = xhazobkult

hre = no

base_tax = 1
base_production = 2
base_manpower = 4

trade_goods = wool

capital = ""

is_city = yes








