# No previous file for Ar Raqqa
owner = U08
controller = U08
add_core = U08
culture = far_akani
religion = mother_akan

hre = no

base_tax = 2
base_production = 2
base_manpower = 1

trade_goods = fish

capital = ""

is_city = yes







