#472 - Zhetyru

owner = U02
controller = U02
add_core = U02
add_core = U01
culture = kheteratan
religion = khetist

hre = no

base_tax = 5
base_production = 2
base_manpower = 3

trade_goods = cloth

capital = ""

is_city = yes









