#500 - St. Vincent

owner = U05
controller = U05
add_core = U05
add_core = U01
culture = kheteratan
religion = khetist

hre = no

base_tax = 3
base_production = 2
base_manpower = 2

trade_goods = fish

capital = ""

is_city = yes









