#510 - Bal Ouord

owner = U16
controller = U16
add_core = U16
culture = ourdi
religion = regent_court


base_tax = 2
base_production = 2
base_manpower = 2

trade_goods = naval_supplies

capital = ""

is_city = yes
fort_15th = yes 












add_permanent_province_modifier = {
	name = ruined_castanorian_citadel
	duration = -1
}