#518 - Aezbel

owner = U17
controller = U17
add_core = U17
add_core = U18
culture = crathanori
religion = regent_court


base_tax = 2
base_production = 3
base_manpower = 3

trade_goods = livestock

capital = ""

is_city = yes










