#526 - Tungr

owner = F23
controller = F23
add_core = F23
culture = copper_dwarf
religion = ancestor_worship

base_tax = 12
base_production = 14
base_manpower = 8

trade_goods = copper
center_of_trade = 2

add_permanent_province_modifier = {
	name = dig_2
	duration = -1
}

capital = ""

is_city = yes
fort_15th = yes









