# No previous file for Kotte
owner = U05
controller = U05
add_core = U05
add_core = F76
culture = brasanni
religion = bulwari_sun_cult

hre = no

base_tax = 7
base_production = 7
base_manpower = 4

trade_goods = sugar

capital = ""

is_city = yes











add_permanent_province_modifier = {
	name = elven_minority_integrated_large
	duration = -1
}