# No previous file for Mong Yang
owner = F32
controller = F32
add_core = F32
culture = brasanni
religion = bulwari_sun_cult

hre = no

base_tax = 1
base_production = 1
base_manpower = 1

trade_goods = fish
capital = ""

is_city = yes









