# No previous file for Moulmein
owner = F37
controller = F37
add_core = F37
add_core = F74
culture = brasanni
religion = bulwari_sun_cult

hre = no

base_tax = 1
base_production = 2
base_manpower = 1

trade_goods = grain

capital = ""

is_city = yes









