# No previous file for Ilan Hala
owner = Z26
controller = Z26
add_core = Z26
culture = old_alenic
religion = regent_court

hre = no

base_tax = 4
base_production = 3
base_manpower = 3

trade_goods = fur

capital = ""

is_city = yes
fort_15th = yes  






