dartaxagerdim_conquest_1 = {
	slot = 1
	generic = no
	ai = yes
	potential = {
		tag = F22
	}
	has_country_shield = yes
	
	dartaxagerdim_bulwari_bahar = {
		icon = mission_coromandel_expansion
		required_missions = { dartaxagerdim_exile_the_goblins }
		position = 3
		
		provinces_to_highlight = {
			OR = {
				area = medbahar_area
				area = magairous_area
				area = aqatbahar_area
				area = azka_evran_area
			}
			NOT = {
				country_or_non_sovereign_subject_holds = ROOT
			}
		}
		
		trigger = {
			medbahar_area = {
				type = all
				country_or_non_sovereign_subject_holds = ROOT
			}
			magairous_area = {
				type = all
				country_or_non_sovereign_subject_holds = ROOT
			}
			aqatbahar_area = {
				type = all
				country_or_non_sovereign_subject_holds = ROOT
			}
			azka_evran_area = {
				type = all
				country_or_non_sovereign_subject_holds = ROOT
			}
		}
		
		effect = {
			tungr_mountains_area = {
				limit = {
					NOT = {
						owned_by = ROOT
						is_core = ROOT
					}
				}
				add_permanent_claim = ROOT
			}
			reuyel_area = {
				limit = {
					NOT = {
						owned_by = ROOT
						is_core = ROOT
					}
				}
				add_permanent_claim = ROOT
			}
			crathanor_area = {
				limit = {
					NOT = {
						owned_by = ROOT
						is_core = ROOT
					}
				}
				add_permanent_claim = ROOT
			}
			
			add_country_modifier = {
				name = dartaxagerdim_the_fleet_of_bahar
				duration = 5475
			}
		}
	}
	
	dartaxagerdim_the_destruction_of_varamhar = {
		icon = mission_crush_delhi
		required_missions = { dartaxagerdim_to_put_the_bulwar_in_bulwar }
		position = 7
		
		provinces_to_highlight = {
			OR = {
				province_id = 614
				owned_by = F42
			}
			NOT = {
				owned_by = ROOT
			}
		}
		
		trigger = {
			owns_core_province = 614
			NOT = { exists = F42 }
		}
		
		effect = {
			614 = {
				add_base_tax = -2
				add_base_production = -2
				add_base_manpower = -2
				add_devastation = 100
			}
			capital_scope = {
				add_base_tax = 2
				add_base_production = 2
				add_base_manpower = 2
			}
			add_mil_power = 100
		}
	}
}


dartaxagerdim_conquest_2 = {
	slot = 2
	generic = no
	ai = yes
	potential = {
		tag = F22
	}
	has_country_shield = yes
	
	dartaxagerdim_the_bulwari_liberation_force = {
		icon = mission_levantine_restoration
		required_missions = { }
		position = 1
		
		trigger = {
			army_size_percentage = 1
		}
		
		effect = {
			add_country_modifier = {
				name = dartaxagerdim_bulwari_liberation_force
				duration = 9125
			}
		}
	}
	
	dartaxagerdim_exile_the_goblins = {
		icon = mission_integrate_the_purbias
		required_missions = { dartaxagerdim_the_bulwari_liberation_force }
		position = 2
		
		provinces_to_highlight = {
			OR = {
				province_id = 532
				province_id = 649
				province_id = 650
				province_id = 652
				province_id = 654
			}
			NOT = {
				country_or_non_sovereign_subject_holds = ROOT
			}
		}
		
		trigger = {
			owns_core_province = 532
			owns_core_province = 649
			owns_core_province = 650
			owns_core_province = 652
			owns_core_province = 654
		}
		
		effect = {
			aqatbahar_area = {
				limit = {
					NOT = {
						owned_by = ROOT
						is_core = ROOT
					}
				}
				add_permanent_claim = ROOT
			}
			azka_evran_area = {
				limit = {
					NOT = {
						owned_by = ROOT
						is_core = ROOT
					}
				}
				add_permanent_claim = ROOT
			}
			magairous_area = {
				limit = {
					NOT = {
						owned_by = ROOT
						is_core = ROOT
					}
				}
				add_permanent_claim = ROOT
			}
			medbahar_area = {
				limit = {
					NOT = {
						owned_by = ROOT
						is_core = ROOT
					}
				}
				add_permanent_claim = ROOT
			}
			birsartenslib_area = {
				limit = {
					NOT = {
						owned_by = ROOT
						is_core = ROOT
					}
				}
				add_permanent_claim = ROOT
			}
			bahar_szel_uak_area = {
				limit = {
					NOT = {
						owned_by = ROOT
						is_core = ROOT
					}
				}
				add_permanent_claim = ROOT
			}
			imuluses_area = {
				limit = {
					NOT = {
						owned_by = ROOT
						is_core = ROOT
					}
				}
				add_permanent_claim = ROOT
			}
			kuz_mountains_area = {
				limit = {
					NOT = {
						owned_by = ROOT
						is_core = ROOT
					}
				}
				add_permanent_claim = ROOT
			}
			alyzksaan_area = {
				limit = {
					NOT = {
						owned_by = ROOT
						is_core = ROOT
					}
				}
				add_permanent_claim = ROOT
			}
			harpylen_area = {
				limit = {
					NOT = {
						owned_by = ROOT
						is_core = ROOT
					}
				}
				add_permanent_claim = ROOT
			}
			upper_gelkali_area = {
				limit = {
					NOT = {
						owned_by = ROOT
						is_core = ROOT
					}
				}
				add_permanent_claim = ROOT
			}
			gelkalis_area = {
				limit = {
					NOT = {
						owned_by = ROOT
						is_core = ROOT
					}
				}
				add_permanent_claim = ROOT
			}
		}
	}
	
	dartaxagerdim_free_the_sheepmen = {
		icon = mission_conquer_kannauj
		required_missions = { dartaxagerdim_exile_the_goblins }
		position = 3
		
		provinces_to_highlight = {
			OR = {
				area = gelkalis_area
				area = upper_gelkali_area
				area = harpylen_area
				area = alyzksaan_area
			}
			NOT = {
				country_or_non_sovereign_subject_holds = ROOT
			}
		}
		
		trigger = {
			gelkalis_area = {
				type = all
				country_or_non_sovereign_subject_holds = ROOT
			}
			upper_gelkali_area = {
				type = all
				country_or_non_sovereign_subject_holds = ROOT
			}
			harpylen_area = {
				type = all
				country_or_non_sovereign_subject_holds = ROOT
			}
			alyzksaan_area = {
				type = all
				country_or_non_sovereign_subject_holds = ROOT
			}
		}
		
		effect = {
			crelyore_ridge_area = {
				limit = {
					NOT = {
						owned_by = ROOT
						is_core = ROOT
					}
				}
				add_permanent_claim = ROOT
			}
			invaders_pass_area = {
				limit = {
					NOT = {
						owned_by = ROOT
						is_core = ROOT
					}
				}
				add_permanent_claim = ROOT
			}
			kalisad_area = {
				limit = {
					NOT = {
						owned_by = ROOT
						is_core = ROOT
					}
				}
				add_permanent_claim = ROOT
			}
			nephevis_tears_area = {
				limit = {
					NOT = {
						owned_by = ROOT
						is_core = ROOT
					}
				}
				add_permanent_claim = ROOT
			}
			jorkad_lake_area = {
				limit = {
					NOT = {
						owned_by = ROOT
						is_core = ROOT
					}
				}
				add_permanent_claim = ROOT
			}
		}
	}
	
	dartaxagerdim_a_human_king_in_bulwar = {
		icon = mission_the_ganges_campaign
		required_missions = { dartaxagerdim_bulwari_bahar dartaxagerdim_free_the_sheepmen dartaxagerdim_defeat_our_ancient_rival }
		position = 4
		
		trigger = {
			total_development = 300
		}
		
		effect = {
			add_prestige = 50
			add_adm_power = 50
			add_dip_power = 50
			add_mil_power = 50
		}
	}
	
	dartaxagerdim_a_great_capital = {
		icon = mission_onward_to_lahore
		required_missions = { dartaxagerdim_a_human_king_in_bulwar }
		position = 5
		
		trigger = {
			capital_scope = { development = 40 }
		}
		
		effect = {
			capital_scope = {
				if = {
					limit = { NOT = { province_has_center_of_trade_of_level = 1 } }
					center_of_trade = 1
				}
				else_if = {
					limit = { province_has_center_of_trade_of_level = 3 }
					add_base_tax = 1
					add_base_production = 1
				}
				else = {
					add_center_of_trade_level = 1
				}
			}
		}
	}
	
	dartaxagerdim_to_put_the_bulwar_in_bulwar = {
		icon = mission_city_of_victory_bah
		required_missions = { dartaxagerdim_destroy_irrliam }
		position = 6
		
		provinces_to_highlight = {
			OR = {
				area = bulwar_area
			}
			NOT = {
				country_or_non_sovereign_subject_holds = ROOT
			}
		}
		
		trigger = {
			bulwar_area = {
				type = all
				country_or_non_sovereign_subject_holds = ROOT
			}
		}
		
		effect = {
			F25 = {
				every_owned_province = {
					add_claim = ROOT
				}
			}
			F42 = {
				every_owned_province = {
					add_claim = ROOT
				}
			}
		}
	}
	
	dartaxagerdim_the_sacking_of_sareyand = {
		icon = mission_spoils_of_war
		required_missions = { dartaxagerdim_to_put_the_bulwar_in_bulwar }
		position = 7
		
		provinces_to_highlight = {
			OR = {
				province_id = 625
				owned_by = F25
			}
			NOT = {
				owned_by = ROOT
			}
		}
		
		trigger = {
			owns_core_province = 625
			NOT = { exists = F25 }
		}
		
		effect = {
			625 = {
				add_base_tax = -2
				add_base_production = -2
				add_base_manpower = -2
				add_devastation = 100
			}
			capital_scope = {
				add_base_tax = 2
				add_base_production = 2
				add_base_manpower = 2
			}
			add_mil_power = 100
		}
	}
	
	dartaxagerdim_a_different_sun = {
		icon = mission_rajput_mansabdars
		required_missions = { dartaxagerdim_the_destruction_of_varamhar dartaxagerdim_the_sacking_of_sareyand dartaxagerdim_the_jewel_of_bulwar }
		position = 8
		
		trigger = {
			bulwar_superregion = {
				type = all
				owner = { NOT = { primary_culture = sun_elf } }
			}
		}
		
		effect = {
			bulwar_superregion = {
				limit = {
					NOT = {
						owned_by = ROOT
						is_core = ROOT
					}
				}
				add_permanent_claim = ROOT
			}
		}
	}
	
	dartaxagerdim_bulwari_bulwar = {
		icon = mission_din_i_llahi
		required_missions = { dartaxagerdim_a_different_sun }
		position = 9
		
		trigger = {
			bahar_region = {
				type = all
				owner = { culture_group = bulwari }
			}
			harpy_hills_region = {
				type = all
				owner = { culture_group = bulwari }
			}
			bulwar_proper_region = {
				type = all
				owner = { culture_group = bulwari }
			}
			far_bulwar_region = {
				type = all
				owner = { culture_group = bulwari }
			}
		}
		
		effect = {
			add_country_modifier = {
				name = dartaxagerdim_human_bulwar
				duration = -1
			}
		}
	}
}


dartaxagerdim_conquest_3 = {
	slot = 3
	generic = no
	ai = yes
	potential = {
		tag = F22
	}
	has_country_shield = yes
	
	dartaxagerdim_reach_out_to_our_bretheren = {
		icon = mission_reliable_allies
		required_missions = { dartaxagerdim_the_bulwari_liberation_force }
		position = 2
		
		trigger = {
			any_ally = {
				culture_group = bulwari
				has_opinion = {
					who = ROOT
					value = 150
				}
			}
		}
		
		effect = {
			add_country_modifier = {
				name = dartaxagerdim_liberator_of_bulwar
				duration = 7300
			}
		}
	}
	
	dartaxagerdim_defeat_our_ancient_rival = {
		icon = mission_assassination
		required_missions = { dartaxagerdim_exile_the_goblins }
		position = 3
		
		provinces_to_highlight = {
			OR = {
				province_id = 549
				owned_by = F21
			}
			NOT = {
				owned_by = ROOT
			}
		}
		
		trigger = {
			owns_core_province = 549
			NOT = { exists = F21 }
		}
		
		effect = {
			add_country_modifier = {
				name = dartaxagerdim_bulwari_liberation
				duration = 7300
			}
			custom_tooltip = dartaxagerdim_gain_claim_on_all_of_irrliam_tt
			hidden_effect = {
				F37 = {
					every_owned_province = {
						add_claim = ROOT
					}
				}
			}
		}
	}
	
	dartaxagerdim_destroy_irrliam = {
		icon = mission_burning_castle
		required_missions = { dartaxagerdim_defeat_our_ancient_rival }
		position = 5
		
		provinces_to_highlight = {
			OR = {
				province_id = 595
				owned_by = F37
			}
			NOT = {
				owned_by = ROOT
			}
		}
		
		trigger = {
			owns_core_province = 595
			NOT = { exists = F37 }
		}
		
		effect = {
			595 = {
				add_base_tax = -2
				add_base_production = -2
				add_base_manpower = -2
				add_devastation = 100
			}
			capital_scope = {
				add_base_tax = 2
				add_base_production = 2
				add_base_manpower = 2
			}
			add_mil_power = 100
			
			bulwar_area = {
				limit = {
					NOT = {
						owned_by = ROOT
						is_core = ROOT
					}
				}
				add_claim = ROOT
			}
			add_casus_belli = {
				target = F24
				type = cb_vassalize_mission
				months = 120
			}
		}
	}
	
	dartaxagerdim_the_jewel_of_bulwar = {
		icon = mission_convert_bengal
		required_missions = { dartaxagerdim_destroy_irrliam }
		position = 7
		
		provinces_to_highlight = {
			OR = {
				province_id = 565
			}
			NOT = {
				country_or_non_sovereign_subject_holds = ROOT
			}
		}
		
		trigger = {
			owns_or_non_sovereign_subject_of = 565
		}
		
		effect = {
			add_country_modifier = {
				name = dartaxagerdim_custodian_of_brasan
				duration = 9125
			}
		}
	}
}


dartaxagerdim_magi = {
	slot = 4
	generic = no
	ai = yes
	potential = {
		tag = F22
	}
	has_country_shield = yes
	
	dartaxagerdim_rebuild_the_magi = {
		icon = mission_jungle_pilgrim
		required_missions = {  }
		position = 1
		
		trigger = {
			estate_influence = {
				estate = estate_mages
				influence = 40
			}
			estate_loyalty = {
				estate = estate_mages
				loyalty = 60
			}
		}
		
		effect = {
			create_war_wizard_effect = yes
		}
	}
	
	dartaxagerdim_establish_magi_sanctuari = {
		icon = mission_magnificent_castle
		required_missions = { dartaxagerdim_rebuild_the_magi }
		position = 2
		
		trigger = {
			treasury = 400
			adm_power = 200
		}
		
		effect = {
			add_treasury = -400
			add_adm_power = -200
			capital_scope = {
				add_province_modifier = {
					name = dartaxagerdim_magi_sanctuary
					duration = -1
				}
			}
		}
	}
	
	dartaxagerdim_seach_for_genie_secrets = {
		icon = mission_warrior_gold
		required_missions = { dartaxagerdim_establish_magi_sanctuari }
		position = 4
		
		trigger = {
			court_mage = 2
			adm_power = 200
		}
		
		effect = {
			add_adm_power = -200
			
			country_event = {
				id = dartaxagerdim_events.1
				days = 730
				random = 1825
			}
		}
	}
	
	dartaxagerdim_the_college_of_magi = {
		icon = mission_conquer_gujarat_bah
		required_missions = { dartaxagerdim_seach_for_genie_secrets }
		position = 6
		
		trigger = {
			any_owned_province = {
				trade_goods = precursor_relics
				has_building = university
			}
			adm_power = 200
		}
		
		effect = {
			add_adm_power = -200
			random_owned_province = {
				limit = {
					trade_goods = precursor_relics
					has_building = university
				}
				add_permanent_province_modifier = {
					name = dartaxagerdim_college_of_magi
					duration = -1
				}
			}
		}
	}
	
	dartaxagerdim_supply_spell_research = {
		icon = mission_brahmin_administrators
		required_missions = { dartaxagerdim_the_college_of_magi }
		position = 8
		
		trigger = {
			any_owned_province = {
				trade_goods = precursor_relics
				base_production = 10
			}
			any_owned_province = {
				trade_goods = damestear
				base_production = 10
			}
		}
		
		effect = {
			add_country_modifier = {
				name = dartaxagerdim_spell_research
				duration = 3650
			}
		}
	}
	
	dartaxagerdim_revive_the_ancient_arts = {
		icon = mission_artificier_experience
		required_missions = { dartaxagerdim_supply_spell_research }
		position = 9
		
		trigger = {
			court_mage = 3
			adm_power = 200
			dip_power = 200
			mil_power = 200
		}
		
		effect = {
			add_adm_power = -200
			add_dip_power = -200
			add_mil_power = -200
			
			country_event = {
				id = dartaxagerdim_events.2
				days = 1825
				random = 3650
			}
		}
	}
}


dartaxagerdim_faith = {
	slot = 5
	generic = no
	ai = yes
	potential = {
		tag = F22
	}
	has_country_shield = yes
	
	dartaxagerdim_return_to_the_old_ways = {
		icon = mission_gharbianss
		required_missions = {  }
		position = 1
		
		trigger = {
			religious_unity = 1
		}
		
		effect = {
			add_country_modifier = {
				name = dartaxagerdim_embraced_the_old_cult
				duration = 5475
			}
		}
	}
	
	dartaxagerdim_build_new_temples = {
		icon = mission_patronize_art_and_religion
		required_missions = { dartaxagerdim_return_to_the_old_ways }
		position = 3
		
		trigger = {
			temple = 10
		}
		
		effect = {
			add_country_modifier = {
				name = dartaxagerdim_new_temples_for_the_old_cult
				duration = 9125
			}
		}
	}
	
	dartaxagerdim_united_under_one_sun = {
		icon = mission_reclaim_morocco
		required_missions = { dartaxagerdim_build_new_temples }
		position = 5
		
		trigger = {
			num_of_owned_provinces_with = {
				value = 20
				religion = ROOT
			}
			religious_unity = 1
		}
		
		effect = {
			add_country_modifier = {
				name = dartaxagerdim_unity_under_the_sun
				duration = 18250
			}
		}
	}
	
	dartaxagerdim_the_ziggurat_of_surakel = {
		icon = mission_sun_temple
		required_missions = { dartaxagerdim_united_under_one_sun }
		position = 7
		
		trigger = {
			treasury = 200
			adm_power = 200
		}
		
		effect = {
			add_treasury = -200
			add_adm_power = -200
			custom_tooltip = dartaxagerdim_the_ziggurat_of_surakel_tt
			
			set_country_flag = dartaxagerdim_ziggurat_of_surakel_flag
		}
	}
}
