goblin_den_column_1 = {
	slot = 1
	generic = no
	ai = yes
	potential = {
		OR = {
			tag = H88
			tag = H92
			tag = H93
		}
	}
	has_country_shield = yes
	
	dens_the_settling_of_grozumdihr = {
		icon = mission_fortify_rajputana
		position = 1
		required_missions = {
		
		}
		trigger = {
			owns = 4265
			4265 = {
				is_core = FROM
				NOT = {
					has_province_modifier = ruined_hold
					has_province_modifier = partially_ruined_hold
					has_province_modifier = damaged_hold
				}
			}
		}
		
		effect = {
			set_capital = 4265
			4265 = {
				add_province_modifier = {
					name = goblindens_settling_groz
					duration = 7300
				}
			}
		}
	}
	
	dens_speaking_to_the_outside_world = {
		icon = mission_fortify_rajputana
		position = 5
		required_missions = {
			dens_the_settling_of_grozumdihr
		}
		trigger = {
			OR = {
				NOT = {
					has_country_modifier = monstrous_nation
				}
				AND = {
					has_country_flag = removing_monstrous
					OR = {
						#we want to check if a non monster country likes us
						any_known_country = {
							AND = {
									NOT = {
										has_country_modifier = monstrous_nation
									}
								has_opinion = {
									who = FROM
									value = 0
								}
							}
						}
					}
				}
			}
		}
		
		effect = {
			custom_tooltip = harpylen_reduced_monstrous_tooltip
			decrease_monstrous_10 = yes
			if = {
				limit = {
					ai = yes
				}
				decrease_monstrous_10 = yes
			}
		}	
	}
	
}

goblin_den_column_2 = {
	slot = 2
	generic = no
	ai = yes
	potential = {
		OR = {
			tag = H88
			tag = H92
			tag = H93
		}
	}
	has_country_shield = yes
	
	dens_uniting_the_three_clans = {
		icon = mission_fortify_rajputana
		position = 1
		required_missions = {
		
		}
		trigger = {
			is_at_war = no
			custom_trigger_tooltip = {
				tooltip = dens_unite_clans_tooltip

				if = {
					limit = {
						ai = yes
					}
					is_year = 1455
				}
				else_if = {
					limit = {
						tag = H88
					}
					OR = {
						knows_country = H92
						H92 = { exists = no }
					}
					OR = {
						knows_country = H93
						H93 = { exists = no }
					}
				}
				else_if = {
					limit = {
						tag = H92
					}
					OR = {
						knows_country = H88
						H88 = { exists = no }
					}
					OR = {
						knows_country = H93
						H93 = { exists = no }
					}
				}
				else_if = {
					limit = {
						tag = H93
					}
					OR = {
						knows_country = H88
						H88 = { exists = no }
						AND = {
							ai = yes
							is_year = 1447
						}
					}
					OR = {
						knows_country = H92
						H92 = { exists = no }
					}
				}
				# worst case: [3 + 2 + 2 = 7 checks for H93], [2 + 2 + 2 = 6 checks for H92], [1 + 2 + 2 = 5 checks for H88] = 18 checks total if all are on map
				# best case: [1 + 2 + 2 = 3 checks for H88 all by itself] - we are more likely to know that the other nations exist than they to not exist
				

				#we check if at least 2 of the 3 tree of stone tags border us or are dead. Because we're the 3rd
				#calc_true_if = {
				#	OR = {
				#		any_known_country = {
				#			tag = H88
				#		}
				#		H88 = { exists = no }
				#	}
				#	OR = {
				#		any_known_country = {
				#				tag = H92
				#			}
				#		H92 = { exists = no }
				#	}
				#	OR = {
				#		any_known_country = {
				#			tag = H93
				#		}
				#		H93 = { exists = no }
				#	}
				#	amount = 2
				#}
				# worst case: 2 + 2 + 2 = 6, 18 checks total if all are on map
				# best case: 4 checks as just H93 on the map. Could get that down to 2 by switching positions of conditions but would lose some unknown amount of performce because knowing the other tags exist is more likely than them being dead
				# no performance difference, but the if statements are more readable
			}
		}
		
		effect = {
			if = {
				limit = {
					NOT = {
						has_global_flag = undergrowth_war
					}
				}
				hidden_effect = {
					set_global_flag = undergrowth_war
				}
			}
			add_casus_belli = {
				target = H88
				type = cb_vassalize_mission
				months = 240
			}
			add_casus_belli = {
				target = H92
				type = cb_vassalize_mission
				months = 240
			}
			add_casus_belli = {
				target = H93
				type = cb_vassalize_mission
				months = 240
			}
			add_country_modifier = {
				name = goblindens_clan_unity
				duration = 1825
			}
			if = {
				limit = {
					is_subject = no
				}
				H88 = {
					if = {
						limit = {
							is_subject = no
						}
						country_event = {
							id = cavegoblinflavor.16
							days = 0
						}
					}
				}
				H92 = {
					if = {
						limit = {
							is_subject = no
						}
						country_event = {
							id = cavegoblinflavor.16
							days = 0
						}
					}
				}
				H93 = {
					if = {
						limit = {
							is_subject = no
						}
						country_event = {
							id = cavegoblinflavor.16
							days = 0
						}
					}
				}
			}
			add_historical_rival = H74
			if = {
				limit = { ai = yes }
				anduz_area = { add_permanent_claim = FROM }
				ambermine_alley_area = { add_permanent_claim = FROM }
				earthseed_area = { add_permanent_claim = FROM }
				add_treasury = 100
				add_adm_power = 100
				add_dip_power = 100
				add_mil_power = 100
			}
		}
	}
	dens_controlling_the_dens = {
		icon = mission_fortify_rajputana
		position = 2
		required_missions = {
			dens_uniting_the_three_clans
		}

		trigger = {
			is_at_war = no
			OR = {
				AND = {
					anduz_area = {
						country_or_subject_holds = FROM
						type = all
					}
					ambermine_alley_area = {
						country_or_subject_holds = FROM
						type = all
					}			
					earthseed_area = {
						country_or_subject_holds = FROM
						type = all
					}
				}
				AND = {
					if = {
						limit = { tag = H88 }
						overlord_of = H93
						overlord_of = H92
					}
					if = {
						limit = { tag = H93 }
						overlord_of = H88
						overlord_of = H92
					}
					if = {
						limit = { tag = H92 }
						overlord_of = H93
						overlord_of = H88
					}
					all_subject_country = {
						NOT = {
							liberty_desire = 50
						}
					}
				}
			}
			OR = {
				AND = {
					dip_power = 100
					manpower = 30
					hidden_trigger = {
						ai = no
					}
				}
				hidden_trigger = {
					ai = yes
					dip_power = 100
				}
				AND = {
					anduz_area = {
						country_or_subject_holds = FROM
						type = all
					}
					ambermine_alley_area = {
						country_or_subject_holds = FROM
						type = all
					}			
					earthseed_area = {
						country_or_subject_holds = FROM
						type = all
					}
				}
			}
		}

		effect = {
			clr_global_flag = undergrowth_war
			add_dip_power = -100
			add_manpower = -20
			add_country_modifier = {
				name = goblindens_undergrowth_expansion
				duration = 5475
			}
			every_subject_country = {
				limit = {
					OR = {
						tag = H88
						tag = H92
						tag = H93
					}
				}
				add_country_modifier = {
					name = goblindens_undergrowth_expansion
					duration = 5475
				}
				hidden_effect = {
					remove_country_modifier = goblindens_subjugated_clan
				}
				add_country_modifier = {
					name = goblindens_subjugated_clan
					duration = -1
				}
				remove_country_modifier = dont_colonize_but_migrate
			}
			if = {
				limit = {
					AND = {
						anduz_area = {
							country_or_subject_holds = FROM
							type = all
						}
						ambermine_alley_area = {
							country_or_subject_holds = FROM
							type = all
						}			
						earthseed_area = {
							country_or_subject_holds = FROM
							type = all
						}
					}
				}
				add_prestige = 25
			}
			#else_if = {
			#	limit = { ai = no }
			#	add_dip_power = -100
			#	add_manpower = -20
			#	4292 = {
			#		if = {
			#			limit = {
			#				OR = {
			#					any_subject_country = {
			#						owns = PREV
			#					}
			#				}
			#				is_city = no
			#			}
			#			cede_province = FROM
			#			add_colonysize = 1000
			#			add_core = FROM
			#			change_culture = cave_goblin
			#			change_religion = goblinic_shamanism
			#		}
			#	}
			#	anduz_area = {
			#		limit = {
			#			is_city = no
			#			is_colony = yes
			#			country_or_subject_holds = FROM
			#		}
			#		add_colonysize = 1000
			#		change_culture = cave_goblin
			#		change_religion = goblinic_shamanism
			#	}
			#	ambermine_alley_area = {
			#		limit = {
			#			is_city = no
			#			is_colony = yes
			#			country_or_subject_holds = FROM
			#		}
			#		add_colonysize = 1000
			#		change_culture = cave_goblin
			#		change_religion = goblinic_shamanism
			#	}
			#	earthseed_area = {
			#		limit = {
			#			is_city = no
			#			is_colony = yes
			#			country_or_subject_holds = FROM
			#		}
			#		add_colonysize = 1000
			#		change_culture = cave_goblin
			#		change_religion = goblinic_shamanism
			#	}
			#	anduz_area = {
			#		limit = {
			#			is_city = no
			#			NOT = { country_or_subject_holds = FROM }
			#		}
			#		if = {
			#			limit = {
			#				H92 = { exists = yes }
			#			}
			#			cede_province = H92
			#			add_colonysize = 1000
			#			add_core = H92
			#		}
			#		else = {
			#			cede_province = H92
			#			add_colonysize = 1000
			#			add_core = H92
			#			hidden_effect = {
			#				H92 = {
			#					change_primary_culture = cave_goblin
			#					change_religion = goblinic_shamanism
			#				}
			#			}
			#		}
			#		change_culture = cave_goblin
			#		change_religion = goblinic_shamanism
			#	}
			#	ambermine_alley_area = {
			#		limit = {
			#			is_city = no
			#			NOT = { country_or_subject_holds = FROM }
			#		}
			#		if = {
			#			limit = {
			#				H88 = { exists = yes }
			#			}
			#			cede_province = H88
			#			add_colonysize = 1000
			#			add_core = H88
			#		}
			#		else = {
			#			cede_province = H88
			#			add_colonysize = 1000
			#			add_core = H88
			#			hidden_effect = {
			#				H88 = {
			#					change_primary_culture = cave_goblin
			#					change_religion = goblinic_shamanism
			#				}
			#			}
			#		}
			#		change_culture = cave_goblin
			#		change_religion = goblinic_shamanism
			#	}
			#	earthseed_area = {
			#		limit = {
			#			is_city = no
			#			NOT = { country_or_subject_holds = FROM }
			#		}
			#		if = {
			#			limit = {
			#				H93 = { exists = yes }
			#			}
			#			cede_province = H93
			#			add_colonysize = 1000
			#			add_core = H93
			#		}
			#		else = {
			#			cede_province = H93
			#			add_colonysize = 1000
			#			add_core = H93
			#			hidden_effect = {
			#				H93 = {
			#					change_primary_culture = cave_goblin
			#					change_religion = goblinic_shamanism
			#				}
			#			}
			#		}
			#		change_culture = cave_goblin
			#		change_religion = goblinic_shamanism
			#	}
			#}
			#else = {
			#	4292 = {
			#		if = {
			#			limit = {
			#				OR = {
			#					any_subject_country = {
			#						owns = PREV
			#					}
			#				}
			#				is_city = no
			#			}
			#			cede_province = FROM
			#			add_colonysize = 1000
			#			add_core = FROM
			#			change_culture = cave_goblin
			#			change_religion = goblinic_shamanism
			#		}
			#	}
			#	anduz_area = {
			#		limit = {
			#			is_city = no
			#			is_colony = yes
			#			country_or_subject_holds = FROM
			#		}
			#		add_colonysize = 1000
			#		change_culture = cave_goblin
			#		change_religion = goblinic_shamanism
			#	}
			#	ambermine_alley_area = {
			#		limit = {
			#			is_city = no
			#			is_colony = yes
			#			country_or_subject_holds = FROM
			#		}
			#		add_colonysize = 1000
			#		change_culture = cave_goblin
			#		change_religion = goblinic_shamanism
			#	}
			#	earthseed_area = {
			#		limit = {
			#			is_city = no
			#			is_colony = yes
			#			country_or_subject_holds = FROM
			#		}
			#		add_colonysize = 1000
			#		change_culture = cave_goblin
			#		change_religion = goblinic_shamanism
			#	}
			#	anduz_area = {
			#		limit = {
			#			is_city = no
			#		}
			#		if = {
			#			limit = {
			#				H92 = { exists = yes }
			#			}
			#			cede_province = H92
			#			add_colonysize = 1000
			#			add_core = H92
			#		}
			#		else = {
			#			cede_province = H92
			#			add_colonysize = 1000
			#			add_core = H92
			#			hidden_effect = {
			#				H92 = {
			#					change_primary_culture = cave_goblin
			#					change_religion = goblinic_shamanism
			#				}
			#			}
			#		}
			#		change_culture = cave_goblin
			#		change_religion = goblinic_shamanism
			#	}
			#	ambermine_alley_area = {
			#		limit = {
			#			is_city = no
			#		}
			#		if = {
			#			limit = {
			#				H88 = { exists = yes }
			#			}
			#			cede_province = H88
			#			add_colonysize = 1000
			#			add_core = H88
			#		}
			#		else = {
			#			cede_province = H88
			#			add_colonysize = 1000
			#			add_core = H88
			#			hidden_effect = {
			#				H88 = {
			#					change_primary_culture = cave_goblin
			#					change_religion = goblinic_shamanism
			#				}
			#			}
			#		}
			#		change_culture = cave_goblin
			#		change_religion = goblinic_shamanism
			#	}
			#	earthseed_area = {
			#		limit = {
			#			is_city = no
			#		}
			#		if = {
			#			limit = {
			#				H93 = { exists = yes }
			#			}
			#			cede_province = H93
			#			add_colonysize = 1000
			#			add_core = H93
			#		}
			#		else = {
			#			cede_province = H93
			#			add_colonysize = 1000
			#			add_core = H93
			#			hidden_effect = {
			#				H93 = {
			#					change_primary_culture = cave_goblin
			#					change_religion = goblinic_shamanism
			#				}
			#			}
			#		}
			#		change_culture = cave_goblin
			#		change_religion = goblinic_shamanism
			#	}
			#}
			#if = {
			#	limit = {
			#		FROM = {
			#			NOT = {
			#				tag = H88
			#				overlord_of = H88
			#				H88 = {
			#					is_subject = yes
			#				}
			#			}
			#		}
			#	}
			#	vassalize = H88
			#}
			#if = {
			#	limit = {
			#		FROM = {
			#			NOT = {
			#				tag = H92
			#				overlord_of = H92
			#				H92 = {
			#					is_subject = yes
			#				}
			#			}
			#		}
			#	}
			#	vassalize = H92
			#}
			#if = {
			#	limit = {
			#		FROM = {
			#			NOT = {
			#				tag = H93
			#				overlord_of = H93
			#				H93 = {
			#					is_subject = yes
			#				}
			#			}
			#		}
			#	}
			#	vassalize = H93
			#}
		}
	}

	dens_improving_the_clan_dens = {
		icon = mission_fortify_rajputana
		position = 3
		required_missions = {
			dens_controlling_the_dens
		}
		trigger = {
			AND = {
				adm_power = 100
				mil_power = 100
				dip_power = 100
			}
			AND = {
				owns_or_subject_of = 4271
				owns_or_subject_of = 4280
				owns_or_subject_of = 4274
			}
		}
		
		effect = {
			add_dip_power = -100
			add_adm_power = -100
			add_mil_power = -100
			4271 = {
				add_base_tax = 1
				add_base_production = 1
				add_base_manpower = 1
			}
			4280 = {
				add_base_tax = 1
				add_base_production = 1
				add_base_manpower = 1
			}
			4274 = {
				add_base_tax = 1
				add_base_production = 1
				add_base_manpower = 1
			}
			every_subject_country = {
				limit = {
					OR = {
						tag = H88
						tag = H92
						tag = H93
					}
				}
				add_country_modifier = {
					name = goblindens_loyal_clan
					duration = -1
				}
			}
		}
	}
	dens_building_new_hovels = {
		icon = mission_fortify_rajputana
		position = 4
		required_missions = {
			dens_improving_the_clan_dens
		}
		trigger = {
			AND = {
				owns_or_subject_of = 4271
				owns_or_subject_of = 4280
				owns_or_subject_of = 4274
			}
			if = {
				limit = { 
					OR = {
						ai = no
						AND = {
							ai = yes
							4271 = {
								has_tax_building_trigger = yes
								has_manpower_building_trigger = yes
							}
							4280 = {
								has_tax_building_trigger = yes
								has_manpower_building_trigger = yes
							}
							4274 = {
								has_tax_building_trigger = yes
								has_manpower_building_trigger = yes
							}
						}
					}
				}
				4271 = {
					has_tax_building_trigger = yes
					has_manpower_building_trigger = yes
				}
				4280 = {
					has_tax_building_trigger = yes
					has_manpower_building_trigger = yes
				}
				4274 = {
					has_tax_building_trigger = yes
					has_manpower_building_trigger = yes
				}
			}
			else = {
				OR = {
					4271 = {
						has_tax_building_trigger = yes
						has_manpower_building_trigger = yes
					}
					4280 = {
						has_tax_building_trigger = yes
						has_manpower_building_trigger = yes
					}
					4274 = {
						has_tax_building_trigger = yes
						has_manpower_building_trigger = yes
					}
					treasury = 600 #dumbshit ai
				}
			}
		}
		
		effect = {
			4271 = {
				add_base_tax = 1
				add_base_production = 1
				add_base_manpower = 1
			}
			4280 = {
				add_base_tax = 1
				add_base_production = 1
				add_base_manpower = 1
			}
			4274 = {
				add_base_tax = 1
				add_base_production = 1
				add_base_manpower = 1
			}
			4271 = {
				add_permanent_province_modifier = {
					name = goblindens_clan_den
					duration = -1
					hidden = no
				}
			}
			4280 = {
				add_permanent_province_modifier = {
					name = goblindens_clan_den
					duration = -1
					hidden = no
				}
			}
			4274 = {
				add_permanent_province_modifier = {
					name = goblindens_clan_den
					duration = -1
					hidden = no
				}
			}
			every_subject_country = {
				limit = {
					OR = {
						tag = H88
						tag = H92
						tag = H93
					}
				}
				add_country_modifier = {
					name = goblindens_empowered_clan
					duration = -1
				}
			}
			if = {
				limit = {
					ai = yes
				}
				if = {
					limit = {
						NOT = {
							4271 = {
								has_tax_building_trigger = yes
							}
						}
					}
					add_treasury = -100
					4271 = {
						add_building = temple
					}
				}
				if = {
					limit = {
						NOT = {
							4280 = {
								has_tax_building_trigger = yes
							}
						}
					}
					add_treasury = -100
					4280 = {
						add_building = temple
					}
				}
				if = {
					limit = {
						NOT = {
							4274 = {
								has_tax_building_trigger = yes
							}
						}
					}
					add_treasury = -100
					4274 = {
						add_building = temple
					}
				}
				if = {
					limit = {
						NOT = {
							4271 = {
								has_manpower_building_trigger = yes
							}
						}
					}
					add_treasury = -100
					4271 = {
						add_building = barracks
					}
				}
				if = {
					limit = {
						NOT = {
							4280 = {
								has_manpower_building_trigger = yes
							}
						}
					}
					add_treasury = -100
					4280 = {
						add_building = barracks
					}
				}
				if = {
					limit = {
						NOT = {
							4274 = {
								has_manpower_building_trigger = yes
							}
						}
					}
					add_treasury = -100
					4274 = {
						add_building = barracks
					}
				}
			}
		}
	}

	dens_mastery_of_the_dens = {
		icon = mission_fortify_rajputana
		position = 5
		required_missions = {
			dens_building_new_hovels
		}

		trigger = {
			if = {
				limit = {
					OR = {
						ai = no
						AND = {
							ai = yes
							4271 = {
								has_tax_building_trigger = yes
								has_manpower_building_trigger = yes
								fort_level = 1
							}
							anduz_area = {
								country_or_subject_holds = FROM
								type = all
							}
							4280 = {
								has_tax_building_trigger = yes
								has_manpower_building_trigger = yes
								fort_level = 1
							}
							ambermine_alley_area = {
								country_or_subject_holds = FROM
								type = all
							}
							4274 = {
								has_tax_building_trigger = yes
								has_manpower_building_trigger = yes
								fort_level = 1
							}
							earthseed_area = {
								country_or_subject_holds = FROM
								type = all
							}
						}
					}
				}
				4271 = {
					has_tax_building_trigger = yes
					has_manpower_building_trigger = yes
					fort_level = 1
				}
				anduz_area = {
					country_or_subject_holds = FROM
					type = all
				}
				4280 = {
					has_tax_building_trigger = yes
					has_manpower_building_trigger = yes
					fort_level = 1
				}
				ambermine_alley_area = {
					country_or_subject_holds = FROM
					type = all
				}
				4274 = {
					has_tax_building_trigger = yes
					has_manpower_building_trigger = yes
					fort_level = 1
				}
				earthseed_area = {
					country_or_subject_holds = FROM
					type = all
				}
			}
			else = {
				4271 = {
					development = 10
				}
				4280 = {
					development = 10
				}
				4274 = {
					development = 10
				}
				treasury = 600
			}
		}

		effect = {
			anduz_area = {
				add_permanent_province_modifier = {
					name = goblindens_the_dens
					duration = -1
				}
			}
			
			ambermine_alley_area = {
				add_permanent_province_modifier = {
					name = goblindens_the_dens
					duration = -1
				}
			}
			
			earthseed_area = {
				add_permanent_province_modifier = {
					name = goblindens_the_dens
					duration = -1
				}
			}
			every_subject_country = {
				limit = {
					OR = {
						tag = H88
						tag = H92
						tag = H93
					}
				}
				add_country_modifier = {
					name = goblindens_united_clan
					duration = -1
				}
			}

			if = {
				limit = {
					ai = yes
				}
				if = {
					limit = {
						OR = {
							NOT = {
								4271 = {
									fort_level = 1
								}
							}
							4271 = {
								is_capital = yes
							}
						}
					}
					add_treasury = -200
					4271 = { add_building = fort_15th }
				}
				if = {
					limit = {
						OR = {
							NOT = {
								4280 = {
									fort_level = 1
								}
							}
							4280 = {
								is_capital = yes
							}
						}
					}
					add_treasury = -200
					4280 = { add_building = fort_15th }
				}
				if = {
					limit = {
						OR = {
							NOT = {
								4274 = {
									fort_level = 1
								}
							}
							4274 = {
								is_capital = yes
							}
						}
					}
					add_treasury = -200
					4274 = { add_building = fort_15th }
				}
			}
		}
	}
}

goblin_den_column_3 = {
	slot = 3
	generic = no
	ai = yes
	potential = {
		OR = {
			tag = H88
			tag = H92
			tag = H93
		}
	}
	has_country_shield = yes

	dens_tracking_dwarven_raiders = {
		icon = mission_fortify_rajputana
		position = 1
		required_missions = {

		}
		trigger = {
			OR = {
				is_rival = H79
				H79 = { exists = no }
			}
		}
		
		effect = {
			add_country_modifier = {
				name = goblindens_war_prep
				duration = 3650
			}
			add_mil_power = 50
			if = {
				limit = {
					ai = yes
					#H79 = { ai = yes }
				}
				H79 = {
					every_owned_province = {
						add_permanent_claim = H93
					}
				}
			}
		}
	}

	dens_ovdal_kanzad_war = {
		icon = mission_fortify_rajputana
		position = 2
		required_missions = {
			dens_tracking_dwarven_raiders
		}
		trigger = {
			OR = {
				war_with = H79
				H79 = { exists = no }
				if = {
					limit = { ai = yes }
					OR = {
						AND = {
							any_neighbor_country = {
								tag = H79
							}
							is_year = 1454
						}
						AND = {
							is_year = 1454
							any_subject_country = {
								any_neighbor_country = {
									tag = H79
								}
							}
						}
						#war_with = H79
						#H79 = { exists = no }
					}
				}
				else = {
					owns = 4247
				}
			}
		}
		
		effect = {
			if = {
				limit = {
					ai = yes 
					AND = {
						is_year = 1454
						any_subject_country = {
							any_neighbor_country = {
								tag = H79
							}
						}
					}
				}
				declare_war_with_cb = {
					who = H79 
					casus_belli = cb_annex
				}
			}
			add_country_modifier = {
				name = goblindens_war_hot
				duration = 1825
			}
			add_yearly_manpower = 0.2
		}
	}

	dens_conquest_of_ovdal_kanzad = {
		icon = mission_fortify_rajputana
		position = 3
		required_missions = {
			dens_ovdal_kanzad_war
		}
		trigger = {
			controls = 4247
		}
		
		effect = {
			add_country_modifier = {
				name = goblindens_war_victory
				duration = 1825
			}
			add_prestige = 10
			if = {
				limit = {
					ai = yes
				}
				4247 = {
					add_permanent_claim = FROM
					#add_core = FROM
				}
			}
		}
	}

	dens_settling_in = {
		icon = mission_fortify_rajputana
		position = 4
		required_missions = {
			dens_conquest_of_ovdal_kanzad
		}
		trigger = {
			4247 = {
				is_core = FROM
				NOT = {
					has_province_modifier = ruined_hold
					has_province_modifier = partially_ruined_hold
					has_province_modifier = damaged_hold
				}
			}
		}
		
		effect = {
			4247 = {
				change_culture = cave_goblin
				change_religion = ROOT
			}
		}
	}

	dens_the_way_forward = {
		icon = mission_fortify_rajputana
		position = 6
		required_missions = {
			dens_mastery_of_the_dens
			dens_settling_in
			dens_speaking_to_the_outside_world
			dens_from_the_caverns_to_the_holds
		}
		trigger = {
			OR = {
				is_tribal = no
				AND = {
					adm_tech = 12
					tree_of_stone_region = {
						culture = cave_goblin
						type = all
					}
				}
			}
		}
		
		effect = {
			set_government_rank = 2
			change_government = monarchy
			add_government_reform = underkingdom_reform
			change_government_reform_progress = 100
			#swap_non_generic_missions = yes
			override_country_name = UDZEN_TROICE # Union of Three
			set_country_flag = undergrowth_way_forward_flag
		}
	}

}

goblin_den_column_4 = {
	slot = 4
	generic = no
	ai = yes
	potential = {
		OR = {
			tag = H88
			tag = H92
			tag = H93
		}
	}
	has_country_shield = yes

	dens_there_can_only_be_one = {
		icon = mission_fortify_rajputana
		position = 1
		required_missions = {

		}
		trigger = {
			is_at_war = no
			OR = {
				AND = {
					any_neighbor_country = {
						tag = H74
					}
					is_rival = H74
					hidden_trigger = {
						NOT = {
							AND = {
								ai = yes
								tag = H93
							}
						}
					}
				}
				H74 = { exists = no }
				hidden_trigger = {
					AND = {
						tag = H93
						any_neighbor_country = {
							tag = H74
						}
						AND = {
							is_year = 1480
							ai = yes
							owns = 4247
							H74 = {
								any_owned_province = {
									any_neighbor_province = { 
										owned_by = H93
										is_city = yes
									}
								}
							}
						}
					}
				}
			}
		}
		effect = {
			the_kariats_area = {
				add_permanent_claim = FROM
			}
			ibran_pass_area = {
				add_permanent_claim = FROM
			}

			ovdal_az_an_area = {
				add_permanent_claim = FROM
			}

			dwarovrod_51_53_area = {
				add_permanent_claim = FROM
			}
		}
	}

	dens_subduing_chaingrasper = {
		icon = mission_fortify_rajputana
		position = 3
		required_missions = {
			dens_there_can_only_be_one
		}
		trigger = {
			OR = {
				AND = {
					controls = 4284
					H74 = {
						owns = 4284
					}
				}
				AND = {
					H74 = { exists = no }
					owns = 4284
				}

			}
		}
		
		effect = {
			add_country_modifier = {
				name = goblindens_war_victory
				duration = 1825
			}
			add_prestige = 10
		}
	}

	dens_from_the_caverns_to_the_holds = {
		icon = mission_fortify_rajputana
		position = 5
		required_missions = {
			dens_subduing_chaingrasper
		}
		trigger = {
			OR = {
				is_tribal = no
				AND = {
					AND = {
						controls = 4284
						4284 = { development = 40 }
					}
	
					AND = {
						controls = 4265
						4265 = { development = 40 }
					}
	
					AND = {
						controls = 4247
						4247 = { development = 40 }
					}
				}
			}
		}
		
		effect = {
			add_country_modifier = {
					name = cave_goblin_reforming
					duration = 9125
			}
			if = {
				limit = {
					is_tribal = yes
					NOT = {
						has_reform = dwarovar_squatter
					}
				}
				add_government_reform = dwarovar_squatter
			}
			else = {
				change_government_reform_progress = 100
				add_prestige = 10
			}
		}
	}
}

#zariplaj path missions
#keep these when forming Zarjiplaj. Chaingrasper will have a different set
#goblin_den_extra_column_1 = {
#	slot = 1
#	generic = no
#	ai = yes
#	potential = {
#		OR = {
#			tag = H88
#			tag = H92
#			tag = H93
#		}
#		has_country_flag = undergrowth_way_forward_flag
#	}
#	has_country_shield = yes
#
#	dens_resettling_the_masses = {
#		icon = mission_fortify_rajputana
#		position = 1
#		required_missions = {
#	
#		}
#	
#		trigger = {
#			manpower = 150
#			tag = I99
#		}
#	
#		effect = {
#			add_manpower = -50
#			add_country_modifier = {
#				name = goblindens_resettling_masses
#				duration = 7300
#			}
#		}
#	}
#
#	keep_these_when_forming_Zarjiplaj_Chaingrasper_will_have_a_different_set = {
#		icon = mission_fortify_rajputana
#		position = 1
#		required_missions = {
#	
#		}
#	
#		trigger = {
#			manpower = 150
#			tag = I99
#		}
#	
#		effect = {
#			custom_tooltip = keep_these_when_forming_Zarjiplaj_Chaingrasper_will_have_a_different_set
#		}
#	}
#}
#
#goblin_den_extra_column_2 = {
#	slot = 2
#	generic = no
#	ai = yes
#	potential = {
#		OR = {
#			tag = H88
#			tag = H92
#			tag = H93
#		}
#		has_country_flag = undergrowth_way_forward_flag
#	}
#	has_country_shield = yes
#
#	dens_placeholder = {
#		icon = mission_fortify_rajputana
#		position = 1
#		required_missions = {
#	
#		}
#	
#		trigger = {
#			manpower = 150
#			tag = I99
#		}
#	
#		effect = {
#			custom_tooltip = will_be_expanded_when_zarjiplaj_is_in
#		}
#	}
#}