
country_decisions = {
	toarnen_chess_training_mil = {	
		potential = {
			has_country_flag = toarnen_unlock_chess_training
		}
		
		allow = {
			has_mil_advisor_2 = yes
			#has_dip_advisor_2 = yes
			custom_trigger_tooltip = {
				tooltip = toarnen_ruler_before_training_tooltip
				NOT = {
					has_ruler_flag = toarnen_ruler_after_training
				}
			}
			mil_power = 150
			NOT = { mil = 6 }
			has_regency = no
		}
	
		effect = {
			add_mil_power = -150
			increase_ruler_mil_effect = yes
			set_ruler_flag = toarnen_ruler_after_training 
		}

		ai_will_do = {
			factor = 1
		}
	}

	toarnen_chess_training_dip = {	
		potential = {
			has_country_flag = toarnen_unlock_chess_training
		}
		
		allow = {
			#has_mil_advisor_2 = yes
			has_dip_advisor_2 = yes
			custom_trigger_tooltip = {
				tooltip = toarnen_ruler_before_training_tooltip
				NOT = {
					has_ruler_flag = toarnen_ruler_after_training
				}
			}
			dip_power = 150
			NOT = { dip = 6 }
			has_regency = no
		}
	
		effect = {
			add_dip_power = -150
			increase_ruler_dip_effect = yes
			set_ruler_flag = toarnen_ruler_after_training 
		}
		
		ai_will_do = {
			factor = 1
		}
	}

	toarnen_host_chess_contest = {	
		potential = {
			has_country_flag = toarnen_unlock_chess_tournament
		}
		
		allow = {
			dip_power = 50
			treasury = 250
			NOT = {
				has_country_modifier = A57_toarnen_chess_tournament_cooldown
			}
			#is_at_war = no
			#has_regency = no
		}
	
		effect = {
			add_dip_power = -50
			add_treasury = -250
			
			country_event = {
				id = flavor_toarnen.19
				days = 1
			}

			add_country_modifier = {
				name = A57_toarnen_chess_tournament_cooldown 
				duration = 3650
			}
		}
		
		ai_will_do = {
			factor = 1
			modifier = {
				factor = 0
				NOT = { stability = 2 }
			}
			modifier = {
				factor = 0
				NOT = { treasury = 500 }
			}
			modifier = {
				factor = 0
				prestige = 50
			}
		}
	}
}